<?xml version="1.0" standalone="no"?>
<!DOCTYPE svg PUBLIC "-//W3C//DTD SVG 20010904//EN"
 "http://www.w3.org/TR/2001/REC-SVG-20010904/DTD/svg10.dtd">
<svg version="1.0" xmlns="http://www.w3.org/2000/svg"
 width="90.000000pt" height="90.000000pt" viewBox="0 0 90.000000 90.000000"
 preserveAspectRatio="xMidYMid meet">
<metadata>
Created by potrace 1.11, written by Peter Selinger 2001-2013
</metadata>
<g transform="translate(0.000000,90.000000) scale(0.100000,-0.100000)"
fill="#000000" stroke="none">
<path d="M417 656 c-70 -18 -131 -33 -135 -34 -97 -20 -109 -25 -119 -53 -6
-16 -10 -29 -8 -29 30 0 380 92 386 102 8 12 13 49 7 47 -2 -1 -61 -16 -131
-33z"/>
<path d="M780 629 c-58 -14 -391 -91 -445 -103 -144 -31 -204 -50 -213 -71 -6
-13 -8 -25 -6 -28 3 -3 29 1 57 9 29 7 63 15 77 18 26 5 112 24 183 42 12 3
31 6 42 8 17 3 377 88 382 90 7 4 13 56 7 55 -5 -1 -43 -10 -84 -20z"/>
<path d="M675 494 c-77 -18 -156 -37 -175 -40 -19 -3 -109 -24 -200 -45 -91
-22 -175 -42 -188 -45 -19 -4 -50 -51 -40 -59 2 -1 77 15 167 36 90 22 173 41
185 43 11 2 53 12 91 21 39 9 79 18 90 21 165 34 207 48 216 71 11 29 11 33 2
32 -5 0 -71 -16 -148 -35z"/>
<path d="M665 385 c-49 -12 -189 -46 -310 -75 -121 -28 -237 -56 -257 -61 -21
-5 -43 -19 -48 -30 -23 -43 -44 -46 400 60 91 22 200 47 242 57 69 16 79 21
87 46 12 34 11 34 -114 3z"/>
<path d="M713 293 c-49 -10 -334 -81 -337 -84 -2 -2 -7 -15 -11 -28 -6 -21 -5
-23 16 -18 335 74 358 81 368 109 10 29 10 30 -36 21z"/>
</g>
</svg>
